2021-08-16T21:28:51.838693+00:00 app[web.1]: Shutdown complete.
2021-08-16T21:28:51.877488+00:00 heroku[web.1]: Process exited with status 143
2021-08-16T21:28:53.997735+00:00 heroku[web.1]: Starting process with command `vendor/bin/heroku-php-apache2  -i custom_php.ini`
2021-08-16T21:28:56.424462+00:00 app[web.1]: Using PHP configuration (php.ini) file 'custom_php.ini'
2021-08-16T21:28:56.444464+00:00 app[web.1]: Detected 536870912 Bytes of RAM
2021-08-16T21:28:56.459832+00:00 app[web.1]: PHP:  syntax error, unexpected TC_LABEL, expecting '=' in /app/custom_php.ini on line 41
2021-08-16T21:28:56.470095+00:00 app[web.1]: PHP memory_limit is 128M Bytes
2021-08-16T21:28:56.475879+00:00 app[web.1]: Starting php-fpm with 4 workers...
2021-08-16T21:28:56.491507+00:00 app[web.1]: PHP:  syntax error, unexpected TC_LABEL, expecting '=' in /app/custom_php.ini on line 41
2021-08-16T21:28:56.540207+00:00 app[web.1]: Starting httpd...
2021-08-16T21:28:56.903073+00:00 heroku[web.1]: State changed from starting to up
2021-08-16T21:30:57.070484+00:00 app[web.1]: 10.1.60.137 - - [16/Aug/2021:21:30:57 +0000] "GET / HTTP/1.1" 200 4920 "-" "Mozilla/5.0 (Windows NT 10.0; Win64; x64) AppleWebKit/537.36 (KHTML, like Gecko) Chrome/92.0.4515.131 Safari/537.36
2021-08-16T21:30:57.072342+00:00 heroku[router]: at=info method=GET path="/" host=disumed.herokuapp.com request_id=c8dbe39a-69bd-4e9a-b717-e76f320435ab fwd="170.84.135.105" dyno=web.1 connect=0ms service=30ms status=200 bytes=5202 protocol=https
2021-08-16T21:30:57.236851+00:00 app[web.1]: 10.1.20.31 - - [16/Aug/2021:21:30:57 +0000] "GET / HTTP/1.1" 200 4920 "-" "Mozilla/5.0 (Windows NT 10.0; Win64; x64) AppleWebKit/537.36 (KHTML, like Gecko) Chrome/92.0.4515.131 Safari/537.36
2021-08-16T21:30:57.239015+00:00 heroku[router]: at=info method=GET path="/" host=disumed.herokuapp.com request_id=8f7e14a0-46cb-45cf-bf5b-093379b1578a fwd="170.84.135.105" dyno=web.1 connect=0ms service=20ms status=200 bytes=5202 protocol=https
2021-08-16T21:30:59.253120+00:00 app[web.1]: 10.1.20.31 - - [16/Aug/2021:21:30:59 +0000] "POST /index.php HTTP/1.1" 302 - "https://disumed.herokuapp.com/" "Mozilla/5.0 (Windows NT 10.0; Win64; x64) AppleWebKit/537.36 (KHTML, like Gecko) Chrome/92.0.4515.131 Safari/537.36
2021-08-16T21:30:59.254778+00:00 heroku[router]: at=info method=POST path="/index.php" host=disumed.herokuapp.com request_id=d6ca4246-4dcf-4e89-9884-992b9b2f5237 fwd="170.84.135.105" dyno=web.1 connect=0ms service=52ms status=302 bytes=283 protocol=https
2021-08-16T21:30:59.358393+00:00 app[web.1]: 10.1.20.31 - - [16/Aug/2021:21:30:59 +0000] "GET /home.php HTTP/1.1" 200 14418 "https://disumed.herokuapp.com/" "Mozilla/5.0 (Windows NT 10.0; Win64; x64) AppleWebKit/537.36 (KHTML, like Gecko) Chrome/92.0.4515.131 Safari/537.36
2021-08-16T21:30:59.360306+00:00 heroku[router]: at=info method=GET path="/home.php" host=disumed.herokuapp.com request_id=162b9a9d-3786-4044-a092-56b432efcc30 fwd="170.84.135.105" dyno=web.1 connect=0ms service=28ms status=200 bytes=14708 protocol=https
2021-08-16T21:31:04.943166+00:00 app[web.1]: 10.1.20.31 - - [16/Aug/2021:21:31:04 +0000] "GET /modulos/Reporteria/index.php HTTP/1.1" 200 43307 "https://disumed.herokuapp.com/home.php" "Mozilla/5.0 (Windows NT 10.0; Win64; x64) AppleWebKit/537.36 (KHTML, like Gecko) Chrome/92.0.4515.131 Safari/537.36
2021-08-16T21:31:04.944896+00:00 heroku[router]: at=info method=GET path="/modulos/Reporteria/index.php" host=disumed.herokuapp.com request_id=8b452d61-59bb-4495-8024-2844b0278a12 fwd="170.84.135.105" dyno=web.1 connect=0ms service=70ms status=200 bytes=43628 protocol=https
2021-08-16T21:31:06.670387+00:00 app[web.1]: 10.1.20.31 - - [16/Aug/2021:21:31:06 +0000] "GET /modulos/Reporteria/informes/informe.php?id=1 HTTP/1.1" 200 20715 "https://disumed.herokuapp.com/modulos/Reporteria/index.php" "Mozilla/5.0 (Windows NT 10.0; Win64; x64) AppleWebKit/537.36 (KHTML, like Gecko) Chrome/92.0.4515.131 Safari/537.36
2021-08-16T21:31:06.672022+00:00 heroku[router]: at=info method=GET path="/modulos/Reporteria/informes/informe.php?id=1" host=disumed.herokuapp.com request_id=1d114db3-b776-489a-bcd0-2f5cfe590670 fwd="170.84.135.105" dyno=web.1 connect=0ms service=38ms status=200 bytes=21013 protocol=https
2021-08-16T21:31:14.414553+00:00 app[web.1]: ./jasperstarter: 26: java: not found
2021-08-16T21:31:14.415690+00:00 app[web.1]: 10.1.20.31 - - [16/Aug/2021:21:31:14 +0000] "POST /modulos/Reporteria/informes/informehelper.php HTTP/1.1" 200 469 "https://disumed.herokuapp.com/modulos/Reporteria/informes/informe.php?id=1" "Mozilla/5.0 (Windows NT 10.0; Win64; x64) AppleWebKit/537.36 (KHTML, like Gecko) Chrome/92.0.4515.131 Safari/537.36
2021-08-16T21:31:14.417443+00:00 heroku[router]: at=info method=POST path="/modulos/Reporteria/informes/informehelper.php" host=disumed.herokuapp.com request_id=2126dc44-5594-40c3-a0de-0b1b622721a9 fwd="170.84.135.105" dyno=web.1 connect=0ms service=29ms status=200 bytes=819 protocol=https
2021-08-16T21:32:56.900548+00:00 app[web.1]: 10.1.50.184 - - [16/Aug/2021:21:32:56 +0000] "GET /modulos/Reporteria/informes/informe.php?id=1 HTTP/1.1" 200 20715 "https://disumed.herokuapp.com/modulos/Reporteria/index.php" "Mozilla/5.0 (Windows NT 10.0; Win64; x64) AppleWebKit/537.36 (KHTML, like Gecko) Chrome/92.0.4515.131 Safari/537.36
2021-08-16T21:32:56.901137+00:00 heroku[router]: at=info method=GET path="/modulos/Reporteria/informes/informe.php?id=1" host=disumed.herokuapp.com request_id=eba83bdb-ed50-4871-8c71-b83fbc80f8b7 fwd="170.84.135.105" dyno=web.1 connect=0ms service=43ms status=200 bytes=21013 protocol=https
2021-08-16T21:33:04.877044+00:00 app[web.1]: ./jasperstarter: 26: java: not found
2021-08-16T21:33:04.878191+00:00 app[web.1]: 10.1.50.184 - - [16/Aug/2021:21:33:04 +0000] "POST /modulos/Reporteria/informes/informehelper.php HTTP/1.1" 200 469 "https://disumed.herokuapp.com/modulos/Reporteria/informes/informe.php?id=1" "Mozilla/5.0 (Windows NT 10.0; Win64; x64) AppleWebKit/537.36 (KHTML, like Gecko) Chrome/92.0.4515.131 Safari/537.36
2021-08-16T21:33:04.878726+00:00 heroku[router]: at=info method=POST path="/modulos/Reporteria/informes/informehelper.php" host=disumed.herokuapp.com request_id=c69cf06e-22ca-4e01-9b62-d57ed3a68ba9 fwd="170.84.135.105" dyno=web.1 connect=0ms service=22ms status=200 bytes=819 protocol=https
2021-08-16T21:33:08.878698+00:00 app[web.1]: 10.1.50.184 - - [16/Aug/2021:21:33:08 +0000] "GET /incluir/jquery/css/smoothness/images/ui-bg_glass_75_dadada_1x400.png HTTP/1.1" 200 262 "https://disumed.herokuapp.com/incluir/jquery/css/smoothness/jquery-ui-1.10.3.custom.css" "Mozilla/5.0 (Windows NT 10.0; Win64; x64) AppleWebKit/537.36 (KHTML, like Gecko) Chrome/92.0.4515.131 Safari/537.36
2021-08-16T21:33:08.879134+00:00 heroku[router]: at=info method=GET path="/incluir/jquery/css/smoothness/images/ui-bg_glass_75_dadada_1x400.png" host=disumed.herokuapp.com request_id=acfc9fb0-0d52-4faa-b5e4-cdf2df99c56c fwd="170.84.135.105" dyno=web.1 connect=0ms service=1ms status=200 bytes=494 protocol=https
2021-08-16T21:33:08.879276+00:00 app[web.1]: 10.1.54.18 - - [16/Aug/2021:21:33:08 +0000] "GET /incluir/jquery/css/smoothness/images/ui-icons_454545_256x240.png HTTP/1.1" 200 6992 "https://disumed.herokuapp.com/incluir/jquery/css/smoothness/jquery-ui-1.10.3.custom.css" "Mozilla/5.0 (Windows NT 10.0; Win64; x64) AppleWebKit/537.36 (KHTML, like Gecko) Chrome/92.0.4515.131 Safari/537.36
2021-08-16T21:33:08.879424+00:00 heroku[router]: at=info method=GET path="/incluir/jquery/css/smoothness/images/ui-icons_454545_256x240.png" host=disumed.herokuapp.com request_id=7906f61f-8e23-442a-9ab6-79c95a39ca5c fwd="170.84.135.105" dyno=web.1 connect=0ms service=1ms status=200 bytes=7226 protocol=https
2021-08-16T21:33:27.700672+00:00 app[web.1]: ./jasperstarter: 26: java: not found
2021-08-16T21:33:27.701902+00:00 app[web.1]: 10.1.54.18 - - [16/Aug/2021:21:33:27 +0000] "POST /modulos/Reporteria/informes/informehelper.php HTTP/1.1" 200 469 "https://disumed.herokuapp.com/modulos/Reporteria/informes/informe.php?id=1" "Mozilla/5.0 (Windows NT 10.0; Win64; x64) AppleWebKit/537.36 (KHTML, like Gecko) Chrome/92.0.4515.131 Safari/537.36
2021-08-16T21:33:27.702543+00:00 heroku[router]: at=info method=POST path="/modulos/Reporteria/informes/informehelper.php" host=disumed.herokuapp.com request_id=2d6283da-ec6b-4cbb-b365-9ce33f52dd63 fwd="170.84.135.105" dyno=web.1 connect=0ms service=20ms status=200 bytes=819 protocol=https
2021-08-16T21:36:43.000000+00:00 app[api]: Build started by user kavv1997@hotmail.com
2021-08-16T21:37:03.000000+00:00 app[api]: Build succeeded
2021-08-16T21:37:03.407604+00:00 app[api]: Deploy 86f0c075 by user kavv1997@hotmail.com
2021-08-16T21:37:03.407604+00:00 app[api]: Release v34 created by user kavv1997@hotmail.com
2021-08-16T21:37:03.623822+00:00 heroku[web.1]: Restarting
2021-08-16T21:37:03.746015+00:00 heroku[web.1]: State changed from up to starting
2021-08-16T21:37:04.544525+00:00 heroku[web.1]: Stopping all processes with SIGTERM
2021-08-16T21:37:04.752254+00:00 app[web.1]: SIGTERM received, attempting graceful shutdown...
2021-08-16T21:37:04.752481+00:00 app[web.1]: Stopping httpd gracefully...
2021-08-16T21:37:05.765930+00:00 app[web.1]: Stopping php-fpm gracefully...
2021-08-16T21:37:05.778656+00:00 app[web.1]: Shutdown complete.
2021-08-16T21:37:05.834303+00:00 heroku[web.1]: Process exited with status 143
2021-08-16T21:37:08.250584+00:00 heroku[web.1]: Starting process with command `vendor/bin/heroku-php-apache2  -i custom_php.ini`
2021-08-16T21:37:10.878712+00:00 app[web.1]: Using PHP configuration (php.ini) file 'custom_php.ini'
2021-08-16T21:37:10.907657+00:00 app[web.1]: Detected 536870912 Bytes of RAM
2021-08-16T21:37:10.938022+00:00 app[web.1]: PHP:  syntax error, unexpected TC_LABEL, expecting '=' in /app/custom_php.ini on line 41
2021-08-16T21:37:10.955738+00:00 app[web.1]: PHP memory_limit is 128M Bytes
2021-08-16T21:37:10.962478+00:00 app[web.1]: Starting php-fpm with 4 workers...
2021-08-16T21:37:10.993889+00:00 app[web.1]: PHP:  syntax error, unexpected TC_LABEL, expecting '=' in /app/custom_php.ini on line 41
2021-08-16T21:37:11.080865+00:00 app[web.1]: Starting httpd...
2021-08-16T21:37:11.928934+00:00 heroku[web.1]: State changed from starting to up
2021-08-16T21:37:12.439626+00:00 heroku[router]: at=info method=GET path="/modulos/Reporteria/informes/informe.php?id=1" host=disumed.herokuapp.com request_id=51327758-32fc-4cc6-b23b-eea769acf6bb fwd="170.84.135.105" dyno=web.1 connect=0ms service=2ms status=302 bytes=293 protocol=https
2021-08-16T21:37:12.440018+00:00 app[web.1]: 10.1.30.80 - - [16/Aug/2021:21:37:12 +0000] "GET /modulos/Reporteria/informes/informe.php?id=1 HTTP/1.1" 302 - "https://disumed.herokuapp.com/modulos/Reporteria/index.php" "Mozilla/5.0 (Windows NT 10.0; Win64; x64) AppleWebKit/537.36 (KHTML, like Gecko) Chrome/92.0.4515.131 Safari/537.36
2021-08-16T21:37:12.559348+00:00 app[web.1]: 10.1.30.80 - - [16/Aug/2021:21:37:12 +0000] "GET /index.php HTTP/1.1" 200 4920 "https://disumed.herokuapp.com/modulos/Reporteria/index.php" "Mozilla/5.0 (Windows NT 10.0; Win64; x64) AppleWebKit/537.36 (KHTML, like Gecko) Chrome/92.0.4515.131 Safari/537.36
2021-08-16T21:37:12.561310+00:00 heroku[router]: at=info method=GET path="/index.php" host=disumed.herokuapp.com request_id=11de1d52-76fc-4be1-8fde-209fad75961d fwd="170.84.135.105" dyno=web.1 connect=0ms service=32ms status=200 bytes=5202 protocol=https
2021-08-16T21:37:12.734600+00:00 heroku[router]: at=info method=GET path="/imagenes/fav-disumed.png" host=disumed.herokuapp.com request_id=15e4bde8-1be8-408b-93ea-7e51793b2346 fwd="170.84.135.105" dyno=web.1 connect=0ms service=3ms status=200 bytes=3094 protocol=https
2021-08-16T21:37:12.734974+00:00 app[web.1]: 10.1.30.80 - - [16/Aug/2021:21:37:12 +0000] "GET /imagenes/fav-disumed.png HTTP/1.1" 200 2861 "https://disumed.herokuapp.com/index.php" "Mozilla/5.0 (Windows NT 10.0; Win64; x64) AppleWebKit/537.36 (KHTML, like Gecko) Chrome/92.0.4515.131 Safari/537.36
2021-08-16T21:37:13.107348+00:00 heroku[router]: at=info method=GET path="/modulos/Reporteria/informes/informe.php?id=1" host=disumed.herokuapp.com request_id=f890f35a-d318-4b0a-967f-52259a3409ff fwd="170.84.135.105" dyno=web.1 connect=0ms service=1ms status=302 bytes=293 protocol=https
2021-08-16T21:37:13.108508+00:00 app[web.1]: 10.1.36.98 - - [16/Aug/2021:21:37:13 +0000] "GET /modulos/Reporteria/informes/informe.php?id=1 HTTP/1.1" 302 - "https://disumed.herokuapp.com/modulos/Reporteria/index.php" "Mozilla/5.0 (Windows NT 10.0; Win64; x64) AppleWebKit/537.36 (KHTML, like Gecko) Chrome/92.0.4515.131 Safari/537.36
2021-08-16T21:37:14.902920+00:00 app[web.1]: 10.1.30.80 - - [16/Aug/2021:21:37:14 +0000] "POST /index.php HTTP/1.1" 302 - "https://disumed.herokuapp.com/index.php" "Mozilla/5.0 (Windows NT 10.0; Win64; x64) AppleWebKit/537.36 (KHTML, like Gecko) Chrome/92.0.4515.131 Safari/537.36
2021-08-16T21:37:14.908721+00:00 heroku[router]: at=info method=POST path="/index.php" host=disumed.herokuapp.com request_id=d20466f8-8a44-4b9d-9146-ced6719e15d7 fwd="170.84.135.105" dyno=web.1 connect=0ms service=62ms status=302 bytes=283 protocol=https
2021-08-16T21:37:15.080622+00:00 heroku[router]: at=info method=GET path="/home.php" host=disumed.herokuapp.com request_id=686ff9aa-978c-4f4f-8a07-9d13804d76d7 fwd="170.84.135.105" dyno=web.1 connect=0ms service=26ms status=200 bytes=14708 protocol=https
2021-08-16T21:37:15.080763+00:00 app[web.1]: 10.1.30.80 - - [16/Aug/2021:21:37:15 +0000] "GET /home.php HTTP/1.1" 200 14418 "https://disumed.herokuapp.com/index.php" "Mozilla/5.0 (Windows NT 10.0; Win64; x64) AppleWebKit/537.36 (KHTML, like Gecko) Chrome/92.0.4515.131 Safari/537.36
2021-08-16T21:37:17.448134+00:00 heroku[router]: at=info method=GET path="/modulos/Reporteria/index.php" host=disumed.herokuapp.com request_id=55d75019-a3c4-4cc2-bc9e-29366d261728 fwd="170.84.135.105" dyno=web.1 connect=0ms service=29ms status=200 bytes=43628 protocol=https
2021-08-16T21:37:17.448517+00:00 app[web.1]: 10.1.30.80 - - [16/Aug/2021:21:37:17 +0000] "GET /modulos/Reporteria/index.php HTTP/1.1" 200 43307 "https://disumed.herokuapp.com/home.php" "Mozilla/5.0 (Windows NT 10.0; Win64; x64) AppleWebKit/537.36 (KHTML, like Gecko) Chrome/92.0.4515.131 Safari/537.36
2021-08-16T21:37:22.413240+00:00 heroku[router]: at=info method=GET path="/modulos/Reporteria/informes/informe.php?id=1" host=disumed.herokuapp.com request_id=6431960d-4129-475a-a390-a0adc2d6a974 fwd="170.84.135.105" dyno=web.1 connect=0ms service=40ms status=200 bytes=21013 protocol=https
2021-08-16T21:37:22.413425+00:00 app[web.1]: 10.1.30.80 - - [16/Aug/2021:21:37:22 +0000] "GET /modulos/Reporteria/informes/informe.php?id=1 HTTP/1.1" 200 20715 "https://disumed.herokuapp.com/modulos/Reporteria/index.php" "Mozilla/5.0 (Windows NT 10.0; Win64; x64) AppleWebKit/537.36 (KHTML, like Gecko) Chrome/92.0.4515.131 Safari/537.36
2021-08-16T21:37:29.430966+00:00 app[web.1]: ./jasperstarter: 26: java: not found
2021-08-16T21:37:29.431817+00:00 heroku[router]: at=info method=POST path="/modulos/Reporteria/informes/informehelper.php" host=disumed.herokuapp.com request_id=2279af8d-613b-4b4f-a074-897edc796b78 fwd="170.84.135.105" dyno=web.1 connect=0ms service=24ms status=200 bytes=357 protocol=https
2021-08-16T21:37:29.432163+00:00 app[web.1]: 10.1.30.80 - - [16/Aug/2021:21:37:29 +0000] "POST /modulos/Reporteria/informes/informehelper.php HTTP/1.1" 200 77 "https://disumed.herokuapp.com/modulos/Reporteria/informes/informe.php?id=1" "Mozilla/5.0 (Windows NT 10.0; Win64; x64) AppleWebKit/537.36 (KHTML, like Gecko) Chrome/92.0.4515.131 Safari/537.36
2021-08-16T21:37:29.615165+00:00 heroku[router]: at=info method=GET path="/favicon.ico" host=disumed.herokuapp.com request_id=ea14f390-bc14-4f89-bee6-17cdd0612bc8 fwd="170.84.135.105" dyno=web.1 connect=0ms service=0ms status=404 bytes=360 protocol=https
2021-08-16T21:37:29.615526+00:00 app[web.1]: 10.1.30.80 - - [16/Aug/2021:21:37:29 +0000] "GET /favicon.ico HTTP/1.1" 404 196 "https://disumed.herokuapp.com/modulos/Reporteria/informes/informehelper.php" "Mozilla/5.0 (Windows NT 10.0; Win64; x64) AppleWebKit/537.36 (KHTML, like Gecko) Chrome/92.0.4515.131 Safari/537.36
2021-08-16T21:38:18.781722+00:00 app[api]: Starting process with command `console` by user kavv1997@hotmail.com
2021-08-16T21:38:24.602966+00:00 heroku[run.5454]: State changed from starting to up
2021-08-16T21:38:24.679713+00:00 heroku[run.5454]: Awaiting client
2021-08-16T21:38:24.715682+00:00 heroku[run.5454]: Starting process with command `console`
2021-08-16T21:38:30.035511+00:00 heroku[run.5454]: Process exited with status 127
2021-08-16T21:38:30.141031+00:00 heroku[run.5454]: State changed from up to complete
2021-08-16T21:39:02.379550+00:00 app[web.1]: 10.1.40.172 - - [16/Aug/2021:21:39:02 +0000] "GET / HTTP/1.1" 302 - "https://dashboard.heroku.com/" "Mozilla/5.0 (Windows NT 10.0; Win64; x64) AppleWebKit/537.36 (KHTML, like Gecko) Chrome/92.0.4515.131 Safari/537.36
2021-08-16T21:39:02.379559+00:00 heroku[router]: at=info method=GET path="/" host=disumed.herokuapp.com request_id=eeb746ae-600e-45ec-8168-9833872bcc83 fwd="170.84.135.105" dyno=web.1 connect=0ms service=1ms status=302 bytes=283 protocol=https
2021-08-16T21:39:02.503172+00:00 app[web.1]: 10.1.40.172 - - [16/Aug/2021:21:39:02 +0000] "GET /home.php HTTP/1.1" 200 14418 "https://dashboard.heroku.com/" "Mozilla/5.0 (Windows NT 10.0; Win64; x64) AppleWebKit/537.36 (KHTML, like Gecko) Chrome/92.0.4515.131 Safari/537.36
2021-08-16T21:39:02.510237+00:00 heroku[router]: at=info method=GET path="/home.php" host=disumed.herokuapp.com request_id=a7ea383c-435d-4354-8a09-ae728fee4946 fwd="170.84.135.105" dyno=web.1 connect=0ms service=39ms status=200 bytes=14708 protocol=https
2021-08-16T21:39:10.596367+00:00 app[api]: Starting process with command `bash` by user kavv1997@hotmail.com
2021-08-16T21:39:15.066817+00:00 heroku[run.9005]: Awaiting client
2021-08-16T21:39:15.087403+00:00 heroku[run.9005]: Starting process with command `bash`
2021-08-16T21:39:15.168434+00:00 heroku[run.9005]: State changed from starting to up
2021-08-16T21:40:45.654833+00:00 app[web.1]: ./jasperstarter: 26: java: not found
2021-08-16T21:40:45.655959+00:00 app[web.1]: 10.1.62.141 - - [16/Aug/2021:21:40:45 +0000] "POST /modulos/Reporteria/informes/informehelper.php HTTP/1.1" 200 77 "https://disumed.herokuapp.com/modulos/Reporteria/informes/informe.php?id=1" "Mozilla/5.0 (Windows NT 10.0; Win64; x64) AppleWebKit/537.36 (KHTML, like Gecko) Chrome/92.0.4515.131 Safari/537.36
2021-08-16T21:40:45.656381+00:00 heroku[router]: at=info method=POST path="/modulos/Reporteria/informes/informehelper.php" host=disumed.herokuapp.com request_id=f84e6749-5302-4d3d-8ea7-17473024f997 fwd="170.84.135.105" dyno=web.1 connect=0ms service=23ms status=200 bytes=357 protocol=https
2021-08-16T21:41:12.690741+00:00 heroku[run.9005]: Client connection closed. Sending SIGHUP to all processes
2021-08-16T21:41:13.212987+00:00 heroku[run.9005]: Process exited with status 129
2021-08-16T21:41:13.397168+00:00 heroku[run.9005]: State changed from up to complete
